{
    "image": [
        {
            "url_full": "./assets/images/hotel-1.jpg",
            "url_thumb": "./assets/images/hotel-1.jpg"
        },
        {
            "url_full": "./assets/images/hotel-6.jpg",
            "url_thumb": "./assets/images/hotel-6.jpg"
        },
        {
            "url_full": "./assets/images/hotel-5.jpg",
            "url_thumb": "./assets/images/hotel-5.jpg"
        },
        {
            "url_full": "./assets/images/hotel-4.jpg",
            "url_thumb": "./assets/images/hotel-4.jpg"
        },
        {
            "url_full": "./assets/images/hotel-3.jpg",
            "url_thumb": "./assets/images/hotel-3.jpg"
        },
        {
            "url_full": "./assets/images/hotel-2.jpg",
            "url_thumb": "./assets/images/hotel-2.jpg"
        },
        {
            "url_full": "./assets/images/hotel-1.jpg",
            "url_thumb": "./assets/images/hotel-1.jpg"
        }
    ],
    "name": "room2",
    "attr": [
        {
            "name": "Quần áo tuỳ chọn",
            "icon": "http://hotelapi.8trip.vn/images/icon/quanao_tuychon.svg"
        },
        {
            "name": "Hướng nhìn ra vườn",
            "icon": "http://hotelapi.8trip.vn/images/icon/huongnhin_vuon.svg"
        }
    ]
}
