<?xml version="1.0" encoding="utf-8"?>
<!-- Generator: Adobe Illustrator 24.2.0, SVG Export Plug-In . SVG Version: 6.00 Build 0)  -->
<svg version="1.1" id="Layer_1" xmlns="http://www.w3.org/2000/svg" xmlns:xlink="http://www.w3.org/1999/xlink" x="0px" y="0px"
	 viewBox="0 0 26 26" style="enable-background:new 0 0 26 26;" xml:space="preserve">
<style type="text/css">
	.st0{clip-path:url(#SVGID_2_);}
	.st1{fill-rule:evenodd;clip-rule:evenodd;fill:#30B9EB;}
	.st2{display:none;fill:#11B8F4;}
</style>
<g>
	<defs>
		<rect id="SVGID_1_" width="26" height="26"/>
	</defs>
	<clipPath id="SVGID_2_">
		<use xlink:href="#SVGID_1_"  style="overflow:visible;"/>
	</clipPath>
	<g class="st0">
		<path class="st1" d="M0.1,14.9c0.4,2.9,1.8,5.6,4,7.6c2.6,2.4,5.9,3.6,9.4,3.5c3-0.1,5.8-1.2,8-3.1c2.2-1.9,3.7-4.5,4.3-7.3
			c0.1-0.3-0.1-0.6-0.4-0.7c-0.3-0.1-0.6,0.1-0.7,0.4c-1.1,5.4-5.8,9.3-11.3,9.5C7.3,25.1,2,20.6,1.2,14.7L2,15.3
			c0.2,0.2,0.6,0.2,0.8-0.1C3,15,2.9,14.6,2.7,14.4L0.9,13c0,0,0,0,0,0c0,0,0,0,0,0c0,0,0,0,0,0c0,0,0,0,0,0c0,0,0,0,0,0
			c0,0,0,0,0,0c0,0,0,0,0,0c0,0,0,0,0,0c0,0,0,0,0,0c0,0,0,0,0,0c0,0,0,0,0,0c0,0,0,0,0,0c0,0,0,0,0,0c0,0,0,0,0,0c0,0,0,0,0,0
			c0,0,0,0,0,0c0,0,0,0,0,0c0,0,0,0,0,0c0,0,0,0,0,0c0,0,0,0,0,0c0,0,0,0,0,0c0,0,0,0,0,0c0,0,0,0,0,0c0,0,0,0,0,0c0,0,0,0,0,0
			c0,0,0,0,0,0c0,0,0,0,0,0c0,0,0,0,0,0c0,0,0,0,0,0c0,0,0,0,0,0c0,0,0,0,0,0C0.1,13-0.1,13.2,0.1,14.9z"/>
		<path class="st1" d="M25.9,11.1c-0.4-2.9-1.8-5.6-4-7.6C19.4,1.1,16-0.1,12.6,0c-3,0.1-5.8,1.2-8,3.1C2.3,5,0.8,7.6,0.2,10.4
			C0.1,10.7,0.3,11,0.6,11c0.3,0.1,0.6-0.1,0.7-0.4c1.1-5.4,5.8-9.3,11.3-9.5C18.7,0.9,24,5.4,24.8,11.3L24,10.7
			c-0.2-0.2-0.6-0.2-0.8,0.1c-0.2,0.2-0.2,0.6,0.1,0.8l1.8,1.4c0,0,0,0,0,0c0,0,0,0,0,0c0,0,0,0,0,0c0,0,0,0,0,0c0,0,0,0,0,0
			c0,0,0,0,0,0c0,0,0,0,0,0c0,0,0,0,0,0c0,0,0,0,0,0c0,0,0,0,0,0c0,0,0,0,0,0c0,0,0,0,0,0c0,0,0,0,0,0c0,0,0,0,0,0c0,0,0,0,0,0
			c0,0,0,0,0,0c0,0,0,0,0,0c0,0,0,0,0,0c0,0,0,0,0,0c0,0,0,0,0,0c0,0,0,0,0,0c0,0,0,0,0,0c0,0,0,0,0,0c0,0,0,0,0,0c0,0,0,0,0,0
			c0,0,0,0,0,0c0,0,0,0,0,0c0,0,0,0,0,0c0,0,0,0,0,0c0,0,0,0,0,0c0,0,0,0,0,0C25.9,13,26.1,12.8,25.9,11.1z"/>
		<path class="st2" d="M10.2,20.1c0,0.1,0,0.2,0,0.2c0,0.1,0.1,0.1,0.2,0.1h1.2c0.1,0,0.2,0,0.2-0.1l3.8-6.3h3.9
			c0.3,0,0.5-0.1,0.7-0.3c0.2-0.2,0.3-0.5,0.2-0.8c-0.1-0.5-0.5-0.9-1-0.9h-3.8l-3.8-6.3c0-0.1-0.1-0.1-0.2-0.1h-1.2
			c-0.1,0-0.2,0-0.2,0.1c0,0.1-0.1,0.2,0,0.2l2.1,6.1H8.9c-0.1,0-0.1,0-0.2-0.1l-1.1-1.4c0-0.1-0.1-0.1-0.2-0.1H6.7
			c-0.1,0-0.1,0-0.2,0.1c0,0.1-0.1,0.1,0,0.2l0.6,2.2c0,0,0,0.1,0,0.1l-0.6,2.2c0,0.1,0,0.2,0,0.2c0,0.1,0.1,0.1,0.2,0.1h0.8
			c0.1,0,0.1,0,0.2-0.1l1.1-1.4c0-0.1,0.1-0.1,0.2-0.1h3.3L10.2,20.1z"/>
	</g>
</g>
</svg>
