<?xml version="1.0" encoding="utf-8"?>
<!-- Generator: Adobe Illustrator 23.0.6, SVG Export Plug-In . SVG Version: 6.00 Build 0)  -->
<svg version="1.1" id="Layer_1" xmlns="http://www.w3.org/2000/svg" xmlns:xlink="http://www.w3.org/1999/xlink" x="0px" y="0px"
	 viewBox="0 0 24 24" style="enable-background:new 0 0 24 24;" xml:space="preserve">
<style type="text/css">
	.st0{fill:#27B5E8;}
</style>
<path class="st0" d="M2.8,24C1.3,24,0,22.7,0,21.2V4.7c0-1.6,1.3-2.8,2.8-2.8h1.1V0h1.9v1.9h12.4V0h1.9v1.9h1.1
	c1.6,0,2.8,1.3,2.8,2.8v16.5c0,1.6-1.3,2.8-2.8,2.8L2.8,24z M1.9,21.2c0,0.5,0.4,0.9,0.9,0.9h18.4c0.5,0,0.9-0.4,0.9-0.9V8.8H1.9
	V21.2z M1.9,4.7v2.2h20.2V4.7c0-0.5-0.4-0.9-0.9-0.9h-1.1v1.9h-1.9V3.7H5.8v1.9H3.9V3.7H2.8C2.3,3.7,1.9,4.2,1.9,4.7L1.9,4.7z
	 M14.8,20.2v-1.9h1.9v1.9H14.8z M11.1,20.2v-1.9h1.9v1.9H11.1z M7.3,20.2v-1.9h1.9v1.9H7.3z M3.6,20.2v-1.9h1.9v1.9H3.6z M18.6,16.4
	v-1.9h1.9v1.9H18.6z M14.8,16.4v-1.9h1.9v1.9H14.8z M11.1,16.4v-1.9h1.9v1.9H11.1z M7.3,16.4v-1.9h1.9v1.9H7.3z M3.6,16.4v-1.9h1.9
	v1.9H3.6z M18.6,12.7v-1.9h1.9v1.9H18.6z M14.8,12.7v-1.9h1.9v1.9H14.8z M11.1,12.7v-1.9h1.9v1.9H11.1z M7.3,12.7v-1.9h1.9v1.9H7.3z
	 M3.6,12.7v-1.9h1.9v1.9H3.6z"/>
</svg>
