<?xml version="1.0" encoding="utf-8"?>
<!-- Generator: Adobe Illustrator 23.0.6, SVG Export Plug-In . SVG Version: 6.00 Build 0)  -->
<svg version="1.1" id="Layer_1" xmlns="http://www.w3.org/2000/svg" xmlns:xlink="http://www.w3.org/1999/xlink" x="0px" y="0px"
	 viewBox="0 0 16 16" style="enable-background:new 0 0 16 16;" xml:space="preserve">
<style type="text/css">
	.st0{fill:#1EB3A1;}
</style>
<path class="st0" d="M0,0v16h16V0H0z M5.6,0.8h4.8v1.3H5.6V0.8z M3.2,15.5V2.9h4.5v12.5H3.2z M12.8,15.5H8.3V2.9h4.5V15.5z
	 M15.2,11.2h-1.6V9.3h1.6L15.2,11.2z M15.2,8.8h-1.6V6.9h1.6L15.2,8.8z"/>
</svg>
