<svg xmlns="http://www.w3.org/2000/svg" width="72" height="72" viewBox="0 0 72 72">
  <g id="Group_354" data-name="Group 354" transform="translate(-660 -180)">
    <circle id="Ellipse_21" data-name="Ellipse 21" cx="36" cy="36" r="36" transform="translate(660 180)" fill="#44dd5e"/>
    <g id="tick" transform="translate(676.2 201.6)">
      <g id="Group_243" data-name="Group 243" transform="translate(0 0)">
        <path id="Path_223" data-name="Path 223" d="M38.642,68.572a1.961,1.961,0,0,0-2.773,0L12.377,92.064l-9.03-9.03A1.961,1.961,0,0,0,.574,85.807L10.99,96.223a1.961,1.961,0,0,0,2.773,0L38.642,71.345A1.961,1.961,0,0,0,38.642,68.572Z" transform="translate(0 -67.997)" fill="#fff"/>
      </g>
    </g>
  </g>
</svg>
