<?xml version="1.0" encoding="utf-8"?>
<!-- Generator: Adobe Illustrator 23.0.6, SVG Export Plug-In . SVG Version: 6.00 Build 0)  -->
<svg version="1.1" id="Layer_1" xmlns="http://www.w3.org/2000/svg" xmlns:xlink="http://www.w3.org/1999/xlink" x="0px" y="0px"
	 viewBox="0 0 24 24" style="enable-background:new 0 0 24 24;" xml:space="preserve">
<path d="M18.8,1.4c1.9-1.4,3.8-1.8,4.7-0.8s0.6,2.8-0.8,4.7l0,0c-1.2,1.4-2.4,2.6-3.8,3.9l0,0l0.3,1.7l0.8-0.8c0.5-0.5,1.4-0.6,2,0
	c0,0,0,0,0,0c0.5,0.5,0.5,1.4,0,2c0,0,0,0,0,0l0,0l-2.2,2.2L21,22c0.1,0.5-0.1,1-0.4,1.4c-0.6,0.6-1.6,0.6-2.2,0
	c-0.1-0.1-0.1-0.1-0.2-0.2l0,0l-5.6-7.7l-1.4,1.4c-0.6,0.6-1.3,1.1-2,1.6l0,0l1.1,3.6c0.2,0.5,0,1.1-0.4,1.5c-0.6,0.6-1.6,0.6-2.1,0
	c-0.1-0.1-0.1-0.1-0.2-0.2l0,0l-2-2.9c-1.1,0.5-2,0.8-2,0.8c-0.2,0.1-0.4,0-0.5-0.1c-0.1-0.1-0.2-0.3-0.1-0.5c0,0,0.3-0.9,0.8-2l0,0
	l-3-2c-0.7-0.5-0.9-1.4-0.4-2.1c0.1-0.1,0.1-0.1,0.2-0.2c0.4-0.4,1-0.5,1.5-0.4l0,0L5.5,15c0.4-0.7,1-1.4,1.6-2l0,0l1.4-1.4L0.8,5.9
	C0.1,5.4,0,4.4,0.5,3.7c0-0.1,0.1-0.1,0.2-0.2C1,3.1,1.5,3,2,3l0,0l7.8,1.3L12,2.1c0.5-0.5,1.4-0.5,2,0c0,0,0,0,0,0
	c0.5,0.5,0.6,1.4,0,2c0,0,0,0,0,0l0,0l-0.8,0.8l1.7,0.3C16.1,3.8,17.4,2.6,18.8,1.4z M8.2,19c-0.6,0.3-1.3,0.7-2,1l0,0l2,2.8
	C8.4,23.1,8.7,23.1,9,23c0,0,0.1,0,0.1-0.1c0.1-0.1,0.2-0.4,0.1-0.6l0,0L8.2,19z M18,9.9l-4.9,4.9l5.7,7.8c0.2,0.3,0.6,0.4,0.9,0.1
	c0,0,0.1,0,0.1-0.1c0.1-0.1,0.2-0.4,0.2-0.6l0,0L18,9.9z M19.4,2.2l-0.2,0c-0.7,0.6,0,0-11.5,11.4c-0.6,0.7-1.2,1.4-1.6,2.2
	c-0.8,1.3-1.5,2.7-2.1,4.2c1.4-0.6,2.8-1.3,4.1-2c0.8-0.5,1.6-1,2.2-1.7C21.8,4.8,21.2,5.5,21.8,4.8c0.1-0.7-0.2-1.4-0.7-1.9
	c-0.5-0.5-1.2-0.7-1.9-0.7L19.4,2.2z M1.7,14.8c-0.2-0.1-0.4,0-0.6,0.1c-0.2,0.2-0.2,0.6,0,0.8c0,0,0.1,0,0.1,0.1l0,0l2.8,2
	c0.3-0.7,0.7-1.4,1-2l0,0L1.7,14.8z M21.3,10.7c-0.2-0.2-0.5-0.2-0.7,0c0,0,0,0,0,0l0,0L19.3,12l0.2,1.1l1.7-1.7
	C21.4,11.2,21.4,10.9,21.3,10.7z M11,12c0.2-0.2,0.6-0.2,0.8,0c0,0,0,0,0,0c0.2,0.2,0.2,0.6,0,0.8c0,0,0,0,0,0
	c-0.2,0.2-0.6,0.2-0.8,0c0,0,0,0,0,0C10.7,12.6,10.7,12.3,11,12C11,12,11,12,11,12z M13.5,9.7c0.2-0.2,0.5-0.2,0.7,0c0,0,0,0,0,0
	c0.2,0.2,0.2,0.5,0,0.7c0,0,0,0,0,0l0,0l-1.4,1.4c-0.2,0.2-0.5,0.2-0.7,0c0,0,0,0,0,0c-0.2-0.2-0.2-0.5,0-0.7c0,0,0,0,0,0l0,0
	L13.5,9.7z M1.9,4c-0.2,0-0.4,0-0.6,0.2C1,4.4,1,4.8,1.3,5.1c0,0,0.1,0,0.1,0.1l0,0l7.8,5.7L14.1,6L1.9,4z M16.4,6.7
	c0.2-0.2,0.5-0.2,0.7,0c0,0,0,0,0,0c0.2,0.2,0.2,0.5,0,0.7c0,0,0,0,0,0l0,0l-1.4,1.4C15.5,9,15.2,9,15,8.8c0,0,0,0,0,0
	c-0.2-0.2-0.2-0.5,0-0.7c0,0,0,0,0,0l0,0L16.4,6.7z M13.3,2.7c-0.2-0.2-0.5-0.2-0.7,0l0,0l-1.7,1.7L12,4.7l1.3-1.3
	C13.5,3.2,13.5,2.9,13.3,2.7C13.3,2.7,13.3,2.7,13.3,2.7z M22.8,1.2c-0.5-0.5-1.7-0.1-2.3,0.2c0.5,0.1,1,0.4,1.4,0.8
	c0.4,0.4,0.6,0.8,0.8,1.4C23.1,2.5,23.2,1.6,22.8,1.2L22.8,1.2z"/>
</svg>
