<?xml version="1.0" encoding="utf-8"?>
<!-- Generator: Adobe Illustrator 23.0.6, SVG Export Plug-In . SVG Version: 6.00 Build 0)  -->
<svg version="1.1" id="Layer_1" xmlns="http://www.w3.org/2000/svg" xmlns:xlink="http://www.w3.org/1999/xlink" x="0px" y="0px"
	 viewBox="0 0 44.8 48" style="enable-background:new 0 0 44.8 48;" xml:space="preserve">
<style type="text/css">
	.st0{fill:#27B5E8;}
	.st1{opacity:0.5;}
</style>
<g transform="translate(3.185 6.37)">
	<path class="st0" d="M36.9,0H23.6c-1.3,0-2.5,0.5-3.4,1.4L1.4,20.2c-1.9,1.9-1.9,4.9,0,6.8c0,0,0,0,0,0l13.3,13.3
		c1.9,1.9,4.9,1.9,6.8,0l18.8-18.8c0.9-0.9,1.4-2.1,1.4-3.4V4.8C41.6,2.1,39.5,0,36.9,0z M30.5,15.9c-2.6,0-4.8-2.1-4.8-4.8
		s2.1-4.8,4.8-4.8c2.6,0,4.8,2.1,4.8,4.8C35.3,13.8,33.1,15.9,30.5,15.9L30.5,15.9z"/>
</g>
<g class="st1">
	<path class="st0" d="M36.9,0H23.6c-1.3,0-2.5,0.5-3.4,1.4L1.4,20.2c-1.6,1.6-1.9,4.2-0.5,6.1c0.4-0.7,0.9-1.4,1.5-2L21.1,5.5
		c1.5-1.5,3.5-2.3,5.6-2.3H40c0.5,0,0.9,0,1.4,0.1C40.8,1.3,38.9,0,36.9,0z"/>
</g>
</svg>
