<svg xmlns="http://www.w3.org/2000/svg" width="27.74" height="20" viewBox="0 0 27.74 20">
  <g id="jcb" transform="translate(0 -69.2)">
    <path id="Path_210" data-name="Path 210" d="M3.8,69.2A3.592,3.592,0,0,0,0,73v6.89A2.058,2.058,0,0,0,2.058,81.37a1.828,1.828,0,0,0,1.924-1.79V76.09H7.025v3.445c0,1.924-2.461,2.908-4.251,2.908a4.6,4.6,0,0,1-2.729-.85V89.2H4.877a3.872,3.872,0,0,0,3.669-3.669V69.2Z" fill="#1174ce"/>
    <path id="Path_211" data-name="Path 211" d="M0,73v6.89A2.058,2.058,0,0,0,2.058,81.37a1.828,1.828,0,0,0,1.924-1.79V76.09H7.025v3.445c0,1.924-2.461,2.908-4.251,2.908a4.6,4.6,0,0,1-2.729-.85V89.2H4.877a3.872,3.872,0,0,0,3.669-3.669V69.2" fill="#0f549d"/>
    <path id="Path_212" data-name="Path 212" d="M6.98,192.4v3.445c0,1.924-2.461,2.908-4.251,2.908A4.6,4.6,0,0,1,0,197.9v7.606H4.832A3.872,3.872,0,0,0,8.5,201.841" transform="translate(0 -116.31)" fill="#02375e"/>
    <path id="Path_213" data-name="Path 213" d="M370.4,250.458h2.1a1.029,1.029,0,1,0,0-2.058h-2.1Z" transform="translate(-349.684 -169.178)" fill="#146643"/>
    <path id="Path_214" data-name="Path 214" d="M347.848,69.2a3.557,3.557,0,0,0-3.8,3.758V76.09h5.638a1.477,1.477,0,1,1,0,2.953,1.516,1.516,0,0,1,1.611,1.432,1.49,1.49,0,0,1-1.611,1.432H344V89.2h4.832a3.872,3.872,0,0,0,3.669-3.669V69.2Z" transform="translate(-324.761)" fill="#1bcc38"/>
    <path id="Path_215" data-name="Path 215" d="M344,73V76.09h5.638a1.477,1.477,0,0,1,0,2.953,1.516,1.516,0,0,1,1.611,1.432,1.49,1.49,0,0,1-1.611,1.432H344V89.2h4.832a3.872,3.872,0,0,0,3.669-3.669V69.2" transform="translate(-324.761)" fill="#329947"/>
    <g id="Group_231" data-name="Group 231" transform="translate(19.239 76.717)">
      <path id="Path_216" data-name="Path 216" d="M351.114,218.8a1.49,1.49,0,0,1-1.477,1.477,1.516,1.516,0,0,1,1.611,1.432,1.49,1.49,0,0,1-1.611,1.432H344v7.293h4.832a3.872,3.872,0,0,0,3.669-3.669" transform="translate(-344 -217.95)" fill="#146643"/>
      <path id="Path_217" data-name="Path 217" d="M373.487,204.629a1.072,1.072,0,0,0-1.029-1.029H370.4v2.013h2.1A.993.993,0,0,0,373.487,204.629Z" transform="translate(-368.924 -203.6)" fill="#146643"/>
    </g>
    <path id="Path_218" data-name="Path 218" d="M175,69.2a3.557,3.557,0,0,0-3.8,3.758v3.848a3.051,3.051,0,0,1,1.924-.761h5.1v1.074a15.915,15.915,0,0,0-2.953-.4,2.282,2.282,0,1,0,0,4.564,15.05,15.05,0,0,0,2.953-.358v.984h-5.1a2.743,2.743,0,0,1-1.924-.761V89.2h4.832a3.872,3.872,0,0,0,3.669-3.669V69.2Z" transform="translate(-161.625)" fill="#e20e37"/>
    <path id="Path_219" data-name="Path 219" d="M171.2,73v3.848a3.051,3.051,0,0,1,1.924-.761h5.1v1.074a15.916,15.916,0,0,0-2.953-.4,2.282,2.282,0,1,0,0,4.564,15.049,15.049,0,0,0,2.953-.358v.94h-5.1a2.743,2.743,0,0,1-1.924-.761V89.2h4.832a3.872,3.872,0,0,0,3.669-3.669V69.2" transform="translate(-161.625)" fill="#b41f36"/>
    <path id="Path_220" data-name="Path 220" d="M178.225,192.4v1.074a15.916,15.916,0,0,0-2.953-.4,2.282,2.282,0,1,0,0,4.564,15.05,15.05,0,0,0,2.953-.358v.94h-5.1a2.743,2.743,0,0,1-1.924-.761v8.054h4.832a3.872,3.872,0,0,0,3.669-3.669" transform="translate(-161.625 -116.31)" fill="#720a1e"/>
  </g>
</svg>
