<?xml version="1.0" encoding="utf-8"?>
<!-- Generator: Adobe Illustrator 23.0.6, SVG Export Plug-In . SVG Version: 6.00 Build 0)  -->
<svg version="1.1" id="Layer_1" xmlns="http://www.w3.org/2000/svg" xmlns:xlink="http://www.w3.org/1999/xlink" x="0px" y="0px"
	 viewBox="0 0 16 14.6" style="enable-background:new 0 0 16 14.6;" xml:space="preserve">
<style type="text/css">
	.st0{fill:#1EB3A1;}
</style>
<path class="st0" d="M10.4,14.6H0v-1c0.2,0.2,0.4,0.2,0.7,0.2h9L10.4,14.6z M4.5,0c-0.6,0-1,0.5-1,1c0,0.3,0.2,0.7,0.4,0.9
	C4.1,1.6,4.2,1.3,4.5,1C4.7,0.8,5,0.6,5.3,0.5C5.2,0.2,4.8,0,4.5,0z M4.2,2.7c0,1.1,0.8,1.9,1.9,2c1.1,0,1.9-0.8,2-1.9
	c0,0,0-0.1,0-0.1c0-1.1-0.9-2-1.9-2c-0.2,0-0.4,0-0.6,0.1C5,1.1,4.5,1.5,4.3,2.1C4.3,2.3,4.2,2.5,4.2,2.7L4.2,2.7z M3.2,5.4
	c-0.5,1-1.4,3.7-1.7,4.3h3.4C4.9,9.6,5,9.4,5.1,9.2c0.3-0.6,1.3-0.9,1.1-1.8c0,0,0,0,0,0L7,8.3c0.1,0.1,0.1,0.1,0.2,0.1l2.4,0.9
	c0.4,0.1,0.8,0,0.9-0.4c0,0,0,0,0,0c0.1-0.4,0-0.8-0.4-0.9L8,7.2c-0.1,0-0.2-0.1-0.3-0.2L5.9,5.2C5.8,5.1,5.7,5.1,5.6,5.1
	c0,0-0.1,0-0.1,0S5.4,5,5.4,5c-0.5-0.1-1-0.2-1.5-0.2C3.8,4.8,3.6,4.9,3.5,5C3.3,5.1,3.2,5.3,3.2,5.4z M0.7,13.4h9.2l0.9,0.9
	c0.2,0.2,0.4,0.3,0.6,0.3h3.8c0.5,0,0.9-0.4,0.9-0.9c0-0.5-0.4-0.8-0.9-0.9h-3.4l-2.3-2.4c-0.1-0.2-0.4-0.3-0.6-0.3l-8.2,0
	c-0.4,0-0.7,0.3-0.7,0.7c0,0,0,0,0,0v1.8C0,13.1,0.3,13.4,0.7,13.4C0.7,13.4,0.7,13.4,0.7,13.4L0.7,13.4z M14.7,10.2
	c0-1.1-0.9-2-2.1-1.9c-1.1,0-2,0.9-1.9,2.1c0,1.1,0.9,1.9,2,1.9C13.9,12.2,14.8,11.3,14.7,10.2L14.7,10.2z"/>
</svg>
