<?xml version="1.0" encoding="utf-8"?>
<!-- Generator: Adobe Illustrator 23.0.6, SVG Export Plug-In . SVG Version: 6.00 Build 0)  -->
<svg version="1.1" id="Layer_1" xmlns="http://www.w3.org/2000/svg" xmlns:xlink="http://www.w3.org/1999/xlink" x="0px" y="0px"
	 viewBox="0 0 16 16" style="enable-background:new 0 0 16 16;" xml:space="preserve">
<style type="text/css">
	.st0{fill:#1EB3A1;}
</style>
<path class="st0" d="M11.7,16c0.1-0.2,0.1-0.3,0.1-0.5V15c0-0.6-0.1-1.1-0.4-1.7c0.5,0.4,1.1,0.7,1.8,0.7c0.8,0,1.6-0.4,2.1-1
	c0.5,0.5,0.7,1.2,0.8,1.9v0.5c0,0.3-0.2,0.5-0.5,0.5L11.7,16z M5.7,16c-0.3,0-0.5-0.2-0.5-0.5V15c0-0.7,0.3-1.4,0.7-1.9
	c1,1.1,2.7,1.3,3.8,0.3c0.1-0.1,0.2-0.2,0.3-0.3c0.5,0.5,0.7,1.2,0.7,1.9v0.5c0,0.3-0.2,0.5-0.5,0.5H5.7z M0.5,16
	C0.2,16,0,15.8,0,15.5c0,0,0,0,0,0V15c0-0.7,0.3-1.4,0.8-1.9c0.5,0.6,1.3,1,2.1,1c0.7,0,1.3-0.3,1.8-0.7c-0.3,0.5-0.4,1.1-0.4,1.7
	v0.5c0,0.2,0,0.3,0.1,0.5L0.5,16z M11.4,11.3c0-1,0.8-1.8,1.8-1.8c1,0,1.8,0.8,1.8,1.8c0,1-0.8,1.8-1.8,1.8
	C12.2,13.1,11.4,12.3,11.4,11.3L11.4,11.3z M6.2,11.3c0-1,0.8-1.8,1.8-1.8s1.8,0.8,1.8,1.8c0,1-0.8,1.8-1.8,1.8c0,0,0,0,0,0
	C7,13.1,6.2,12.3,6.2,11.3L6.2,11.3z M1,11.3c0-1,0.8-1.8,1.8-1.8c1,0,1.8,0.8,1.8,1.8c0,1-0.8,1.8-1.8,1.8C1.8,13.1,1,12.3,1,11.3
	C1,11.3,1,11.3,1,11.3L1,11.3z M1.4,8.5C1.2,8.5,1,8.3,1,8c0,0,0,0,0,0V0.5C1,0.2,1.2,0,1.4,0c0,0,0,0,0,0h13.1
	C14.8,0,15,0.2,15,0.5c0,0,0,0,0,0V8c0,0.3-0.2,0.5-0.5,0.5c0,0,0,0,0,0H1.4z M10.8,7.5h1.4V0.9H3.8v6.6h1.4c0-0.7,0.3-1.4,0.7-1.9
	c1,1.2,2.8,1.3,3.9,0.2c0.1-0.1,0.2-0.2,0.2-0.2C10.6,6.2,10.8,6.9,10.8,7.5L10.8,7.5z M6.2,3.9c0.1-1,0.9-1.8,1.9-1.7
	C9.1,2.2,9.9,3,9.8,4C9.8,5,9,5.8,8,5.8C7,5.8,6.1,4.9,6.2,3.9L6.2,3.9z"/>
</svg>
