<?xml version="1.0" encoding="utf-8"?>
<!-- Generator: Adobe Illustrator 23.0.6, SVG Export Plug-In . SVG Version: 6.00 Build 0)  -->
<svg version="1.1" id="Layer_1" xmlns="http://www.w3.org/2000/svg" xmlns:xlink="http://www.w3.org/1999/xlink" x="0px" y="0px"
	 viewBox="0 0 23.6 20.8" style="enable-background:new 0 0 23.6 20.8;" xml:space="preserve">
<style type="text/css">
	.st0{fill:#092833;}
</style>
<path class="st0" d="M15.6,18.3c0-1.3,1.1-2.4,2.4-2.4s2.4,1.1,2.4,2.4s-1.1,2.4-2.4,2.4h0C16.7,20.7,15.6,19.7,15.6,18.3z
	 M17.3,18.3c0,0.4,0.3,0.7,0.7,0.7s0.7-0.3,0.7-0.7s-0.3-0.7-0.7-0.7C17.6,17.6,17.3,17.9,17.3,18.3z M3.3,18.3
	c0-1.3,1.1-2.4,2.4-2.4s2.4,1.1,2.4,2.4S7,20.7,5.7,20.7h0C4.4,20.7,3.3,19.7,3.3,18.3z M5,18.3c0,0.4,0.3,0.7,0.7,0.7
	s0.7-0.3,0.7-0.7s-0.3-0.7-0.7-0.7C5.3,17.6,5,17.9,5,18.3z M21,18.6c0-0.1,0-0.2,0-0.3c0-1.7-1.3-3-3-3.1c-1.7,0-3,1.3-3.1,3
	c0,0,0,0.1,0,0.1c0,0.1,0,0.2,0,0.3H8.7c0-0.1,0-0.2,0-0.3c0-1.7-1.4-3-3-3c-1.7,0-3,1.4-3,3c0,0.1,0,0.2,0,0.3H0.4
	c-0.2,0-0.4-0.2-0.4-0.4v-1.6c0-0.2,0.1-0.3,0.3-0.3v-1.2c0-0.5,0.4-1,0.9-1.1l4.1-1l3-2.4c0.9-0.8,2.1-1.2,3.4-1.2h5.4
	c0.3,0,0.7,0.1,0.9,0.4l2.7,2.4l0.9,0c0.6,0,1.2,0.4,1.2,1l0.4,3.2c0.2,0,0.4,0.2,0.4,0.4v1.5c0,0.2-0.2,0.4-0.4,0.4L21,18.6z
	 M9,11.7l-1.4,1.2l7.6-0.4v-1.8h-3.3C10.8,10.7,9.8,11,9,11.7z M16.4,12.4l2.5-0.1l-1.5-1.4c-0.1-0.1-0.3-0.2-0.5-0.2h-0.5
	L16.4,12.4z M1.5,8.8c-0.8,0-1.4-0.6-1.4-1.4v-6C0.1,0.6,0.7,0,1.5,0h6c0.8,0,1.4,0.6,1.4,1.4v6c0,0.8-0.6,1.4-1.4,1.4L1.5,8.8z
	 M1.2,1.5v5.8c0,0.2,0.2,0.4,0.4,0.4h5.8c0.2,0,0.4-0.2,0.4-0.4v0V1.5c0-0.2-0.2-0.4-0.4-0.4h0H1.6C1.4,1.1,1.2,1.3,1.2,1.5
	C1.2,1.5,1.2,1.5,1.2,1.5L1.2,1.5z M2.6,7.1V1.8c0.5-0.1,1.1-0.1,1.6-0.1c0.6,0,1.2,0.1,1.6,0.4c0.4,0.3,0.6,0.8,0.6,1.2
	c0,0.5-0.2,0.9-0.5,1.3C5.4,5,4.8,5.2,4.2,5.2c-0.1,0-0.3,0-0.4,0v1.9L2.6,7.1z M3.8,2.6v1.6c0.1,0,0.3,0,0.4,0c0.6,0,1-0.3,1-0.9
	c0-0.5-0.3-0.8-0.9-0.8C4.1,2.6,3.9,2.6,3.8,2.6L3.8,2.6z"/>
</svg>
