<svg width="18" height="18" viewBox="0 0 18 18" fill="none" xmlns="http://www.w3.org/2000/svg">
<path d="M2.06262 15.75H15.9374C17.0754 15.75 18 14.8254 18 13.6874V4.31262C18 3.17461 17.0754 2.25 15.9374 2.25H2.06262C0.92461 2.25 0 3.17461 0 4.31262V13.6874C0 14.8254 0.92461 15.75 2.06262 15.75ZM15.9374 3.375C16.4542 3.375 16.875 3.79582 16.875 4.31262V13.6874C16.875 14.2042 16.4542 14.625 15.9374 14.625H2.06262C1.54582 14.625 1.125 14.2042 1.125 13.6874V4.31262C1.125 3.79582 1.54582 3.375 2.06262 3.375H15.9374Z" fill="#666666"/>
<path d="M12.375 9.00012C13.4086 9.00012 14.2499 8.15848 14.2499 7.12524C14.2499 6.09164 13.4086 5.25 12.375 5.25C11.3414 5.25 10.5001 6.09164 10.5001 7.12524C10.5001 8.15848 11.3414 9.00012 12.375 9.00012ZM12.375 6.375C12.7881 6.375 13.1249 6.7118 13.1249 7.12524C13.1249 7.53832 12.7881 7.87512 12.375 7.87512C11.9619 7.87512 11.6251 7.53832 11.6251 7.12524C11.6251 6.7118 11.9619 6.375 12.375 6.375Z" fill="#666666"/>
<path d="M9.5625 12.7502C9.87293 12.7502 10.125 12.4982 10.125 12.1877V11.8126C10.125 11.2958 10.5458 10.875 11.0626 10.875H13.6874C14.2042 10.875 14.625 11.2958 14.625 11.8126V12.1877C14.625 12.4982 14.8771 12.7502 15.1875 12.7502C15.4979 12.7502 15.75 12.4982 15.75 12.1877V11.8126C15.75 10.675 14.8254 9.75 13.6874 9.75H11.0626C9.92496 9.75 9 10.6746 9 11.8126V12.1877C9 12.4982 9.25207 12.7502 9.5625 12.7502Z" fill="#666666"/>
<path d="M2.8125 6.75H6.93738C7.24781 6.75 7.49988 6.49793 7.49988 6.1875C7.49988 5.87707 7.24781 5.625 6.93738 5.625H2.8125C2.50207 5.625 2.25 5.87707 2.25 6.1875C2.25 6.49793 2.50207 6.75 2.8125 6.75Z" fill="#666666"/>
<path d="M2.8125 9.75H6.93738C7.24781 9.75 7.49988 9.49793 7.49988 9.1875C7.49988 8.87707 7.24781 8.625 6.93738 8.625H2.8125C2.50207 8.625 2.25 8.87707 2.25 9.1875C2.25 9.49793 2.50207 9.75 2.8125 9.75Z" fill="#666666"/>
<path d="M2.8125 12.75H6.93738C7.24781 12.75 7.49988 12.4979 7.49988 12.1875C7.49988 11.8771 7.24781 11.625 6.93738 11.625H2.8125C2.50207 11.625 2.25 11.8771 2.25 12.1875C2.25 12.4979 2.50207 12.75 2.8125 12.75Z" fill="#666666"/>
</svg>
