<?xml version="1.0" encoding="utf-8"?>
<!-- Generator: Adobe Illustrator 23.0.6, SVG Export Plug-In . SVG Version: 6.00 Build 0)  -->
<svg version="1.1" id="Layer_1" xmlns="http://www.w3.org/2000/svg" xmlns:xlink="http://www.w3.org/1999/xlink" x="0px" y="0px"
	 viewBox="0 0 12 12" style="enable-background:new 0 0 12 12;" xml:space="preserve">
<style type="text/css">
	.st0{fill:none;}
	.st1{fill:#00AA6C;}
</style>
<g>
	<circle class="st0" cx="6" cy="6" r="6"/>
	<path class="st1" d="M6,12c-3.3,0-6-2.7-6-6s2.7-6,6-6s6,2.7,6,6S9.3,12,6,12z M6,1C3.2,1,1,3.2,1,6s2.2,5,5,5s5-2.2,5-5S8.8,1,6,1
		z M6,10L6,10c-2.2,0-4-1.8-4-4s1.8-4,4-4V10z"/>
</g>
</svg>
