<svg width="18" height="18" viewBox="0 0 18 18" fill="none" xmlns="http://www.w3.org/2000/svg">
<path d="M15.5932 2.63867H2.4068C1.07965 2.63867 0 3.71832 0 5.04547V12.9532C0 14.2803 1.07965 15.36 2.4068 15.36H15.5932C16.9204 15.36 18 14.2803 18 12.9532V5.04547C18 3.71832 16.9204 2.63867 15.5932 2.63867ZM16.8261 12.9528C16.8261 13.6327 16.2731 14.1857 15.5932 14.1857H2.4068C1.72687 14.1857 1.17387 13.6327 1.17387 12.9528V6.8525H16.8261V12.9528ZM16.8261 5.67863H1.17387V5.04547C1.17387 4.36555 1.72687 3.81254 2.4068 3.81254H15.5932C16.2731 3.81254 16.8261 4.36555 16.8261 5.04547V5.67863Z" fill="#666666"/>
<path d="M13.9387 8.41211C13.6019 8.41211 13.275 8.48629 12.9765 8.62937C12.678 8.48664 12.3514 8.41211 12.0143 8.41211C10.7806 8.41211 9.77728 9.41547 9.77728 10.6491C9.77728 11.8827 10.781 12.8861 12.0143 12.8861C12.3511 12.8861 12.6777 12.8119 12.9765 12.6688C13.275 12.8116 13.6016 12.8861 13.9387 12.8861C15.1724 12.8861 16.1757 11.8824 16.1757 10.6491C16.1757 9.41582 15.172 8.41211 13.9387 8.41211ZM13.9387 11.7122C13.7151 11.7122 13.5007 11.6433 13.3193 11.5129L12.9765 11.2664L12.6337 11.5129C12.4523 11.6433 12.2382 11.7122 12.0143 11.7122C11.4282 11.7122 10.9512 11.2352 10.9512 10.6491C10.9512 10.063 11.4282 9.58598 12.0143 9.58598C12.2379 9.58598 12.4523 9.65488 12.6337 9.78531L12.9765 10.0318L13.3193 9.78531C13.5007 9.65488 13.7148 9.58598 13.9387 9.58598C14.5248 9.58598 15.0019 10.063 15.0019 10.6491C15.0019 11.2352 14.5248 11.7122 13.9387 11.7122Z" fill="#666666"/>
<path d="M6.56122 8.98633H2.41138V10.1602H6.56122V8.98633Z" fill="#666666"/>
<path d="M7.88978 11.1406H2.41138V12.3145H7.88978V11.1406Z" fill="#666666"/>
</svg>
