<?xml version="1.0" encoding="utf-8"?>
<!-- Generator: Adobe Illustrator 23.0.6, SVG Export Plug-In . SVG Version: 6.00 Build 0)  -->
<svg version="1.1" id="Layer_1" xmlns="http://www.w3.org/2000/svg" xmlns:xlink="http://www.w3.org/1999/xlink" x="0px" y="0px"
	 viewBox="0 0 21 23.4" style="enable-background:new 0 0 21 23.4;" xml:space="preserve">
<style type="text/css">
	.st0{fill:#092833;}
</style>
<path class="st0" d="M1.2,23.4c-0.7,0-1.2-0.6-1.2-1.3V6c0-0.3,0.1-0.5,0.3-0.8c0,0,0.1-0.1,0.1-0.1C0.4,5.1,0.5,5,0.5,4.9
	c0.1-0.1,0.2-0.1,0.3-0.1C0.8,5,0.9,5.2,1,5.4C1.1,5.6,1.2,5.8,1.4,6c0,0,0.1,0.1,0.1,0.1c0.4,0.4,0.9,0.7,1.5,0.7h15.9
	c0.6,0,1.1-0.3,1.4-0.9c0,0,0-0.1,0.1-0.1c0.1-0.2,0.2-0.4,0.2-0.6c0-0.1,0-0.2,0.1-0.3c0,0,0.1,0.1,0.1,0.1
	c0.1,0.1,0.1,0.2,0.2,0.3c0,0,0,0.1,0.1,0.1C21,5.7,21,5.8,21,6v16.1c0,0.7-0.5,1.3-1.2,1.3L1.2,23.4z M4.2,15.2
	c0.1,3.5,3.1,6.3,6.6,6.2s6.3-3.1,6.2-6.6c-0.1-3.4-2.9-6.2-6.4-6.2C7,8.7,4.1,11.7,4.2,15.2L4.2,15.2z M5.4,15.6
	c0.2-2.8,2.6-5,5.4-4.8s5,2.6,4.8,5.4c-0.2,2.7-2.4,4.8-5.1,4.8C7.6,20.9,5.3,18.5,5.4,15.6L5.4,15.6z M6.7,15c0,0.2,0,0.4,0,0.6
	c-0.1,2.1,1.5,3.9,3.6,4c2.1,0.1,3.9-1.5,4-3.6c0-0.2,0-0.3,0-0.5c0-0.4-0.1-0.8-0.2-1.2c-0.3,0.7-1,1.1-1.8,1c-0.2,0-0.4,0-0.5-0.1
	c0.3-0.2,0.4-0.4,0.4-0.7c0-0.4-0.3-0.8-0.8-0.9c-0.4,0-0.8,0.3-0.9,0.8c0,0,0,0.1,0,0.1c0,0,0,0.1,0,0.1c-0.4-0.4-1-0.6-1.5-0.6h0
	C8.2,14.2,7.4,14.5,6.7,15L6.7,15z M12.3,13.4c0,0.3,0.3,0.6,0.7,0.6c0.3,0,0.6-0.3,0.6-0.7c0-0.3-0.3-0.6-0.6-0.6
	C12.6,12.8,12.3,13,12.3,13.4L12.3,13.4z M10.3,12.1c0,0.3,0.3,0.6,0.7,0.6c0.3,0,0.6-0.3,0.6-0.7c0-0.3-0.3-0.6-0.6-0.6
	C10.6,11.5,10.3,11.7,10.3,12.1C10.3,12.1,10.3,12.1,10.3,12.1L10.3,12.1z M18.8,6.6H3.1C2.4,6.5,1.9,6,1.8,5.4h18
	c0,0.5-0.2,0.9-0.7,1.2c-0.1,0-0.1,0-0.2,0L18.8,6.6z M19.8,4.4H1.3c-0.2,0-0.5,0-0.7,0.1l0.7-3.1C1.5,0.6,2.1,0,3,0h15.6
	c0.9,0,1.6,0.6,1.7,1.5L21,4.8C20.7,4.6,20.2,4.4,19.8,4.4L19.8,4.4z M9.1,3.6h2.1V2.8H9.1V3.6z M16.2,2.2c0,0.7,0.5,1.2,1.2,1.2
	c0.7,0,1.2-0.5,1.2-1.2c0-0.7-0.5-1.2-1.2-1.2c0,0,0,0,0,0C16.8,1,16.2,1.6,16.2,2.2C16.2,2.2,16.2,2.2,16.2,2.2L16.2,2.2z
	 M12.5,2.2c0,0.7,0.5,1.2,1.2,1.2c0.7,0,1.2-0.5,1.2-1.2c0-0.7-0.5-1.2-1.2-1.2c0,0,0,0,0,0C13.1,1,12.5,1.6,12.5,2.2
	C12.5,2.2,12.5,2.2,12.5,2.2L12.5,2.2z M9.1,2h2.1V1.2H9.1V2z"/>
</svg>
