<?xml version="1.0" encoding="utf-8"?>
<!-- Generator: Adobe Illustrator 23.0.6, SVG Export Plug-In . SVG Version: 6.00 Build 0)  -->
<svg version="1.1" id="Layer_1" xmlns="http://www.w3.org/2000/svg" xmlns:xlink="http://www.w3.org/1999/xlink" x="0px" y="0px"
	 viewBox="0 0 21.3 24" style="enable-background:new 0 0 21.3 24;" xml:space="preserve">
<style type="text/css">
	.st0{fill:#092833;}
</style>
<path class="st0" d="M18,15.6H1.4v7.2h9.3l-1.2-1l1-1.2l1.2,1l-1,1.2H18V15.6z M2.7,22.2l-1.2-1l1-1.2l1.2,1L2.7,22.2z M3.8,19.1
	l-1.2-1l1-1.2l1.2,1L3.8,19.1z M16.5,19.1l-1.2-1l1-1.2l1.2,1L16.5,19.1z M0.7,3.1L0,0.8L2.6,0l0.7,2.3L0.7,3.1z M17.4,4.3l-1,2
	c-1.3-0.1-2.5,0.6-3.1,1.8l-1,1.9l-2.8,5.3L7.6,9.5L7,7.4C6.6,6.1,5.5,5.2,4.2,5.1L3.5,3L0.9,3.8l0.7,2.1c-1,0.9-1.4,2.2-1,3.5
	l0.6,2.1l1.2,3.8H17l1.2-2.2l0.4-0.7v10.8H0.9v-11H0V24h19.4V12.1h-0.7l0.5-0.9c0.6-1.2,0.5-2.6-0.3-3.6l1-2L17.4,4.3z M3.6,14.6
	l-1.3-3.2l4.2-1.7l1.8,4.8L3.6,14.6z M16.2,14.5h-5.1l2.6-4.8l4,1.9L16.2,14.5z M21.3,2.8l-1.1,2.1l-2.4-1.3l1.1-2.1L21.3,2.8z"/>
</svg>
