<svg xmlns="http://www.w3.org/2000/svg" width="48.002" height="47.999" viewBox="0 0 48.002 47.999">
  <path id="huongnhin_thunglung" d="M13849.623,6716c.171-.254.369-.54.609-.857a22.376,22.376,0,0,1,4.733-4.524,32.11,32.11,0,0,1,9.433-4.542,52.408,52.408,0,0,1,14.6-2.069V6716Zm-18.625,0v-13.114a27.526,27.526,0,0,1,8.572-1.456c5.19,0,11.616,2.055,17.824,5.674a29.676,29.676,0,0,0-3.543,2.205,21.431,21.431,0,0,0-6.234,6.691Zm13.129-15.849a162.866,162.866,0,0,1,16.709-5.824l-1.516,5.145a.859.859,0,0,0,.822,1.1h3.427v3.967a37.6,37.6,0,0,0-4.347,1.661A45.258,45.258,0,0,0,13844.127,6700.15Zm21.156.422h3.432a.859.859,0,0,0,.821-1.1l-.181-.613h1.93v3.985a49.57,49.57,0,0,0-6,1.2Zm7.716-1.714h3.431a.849.849,0,0,0,.7-.373.861.861,0,0,0,.094-.794l-2.539-6.6c1.448-.254,2.895-.484,4.312-.679v11.885q-3.108.037-6,.345Zm-42,1.048,5.162-10.969a2.573,2.573,0,0,1,3.65-1.111l1.035.624a.854.854,0,0,0,1.174-.3l1.543-2.57,1.334,1.111a2.585,2.585,0,0,0,3.072.164l1.031-.687,1.03.687a2.585,2.585,0,0,0,3.072-.164l1.856-1.546,5.169,7.6a166.884,166.884,0,0,0-19.46,7c-.373-.021-.738-.028-1.1-.028a29.024,29.024,0,0,0-8.572,1.362Zm30.29-1.048,3.142-10.676,3.139,10.676Zm8.586-1.714,2.358-7.667,2.947,7.667Zm-2.365-4.57c.711-.167,1.422-.331,2.125-.484l-1.16,3.772Zm-14.11-12.773,2.623-3.184,1.662,1.425a2.555,2.555,0,0,0,3.215.1l1.814-1.362,1.725,1.3a2.589,2.589,0,0,0,3.361-.24l1.166-1.167,9.311,12.1c-1.39.2-2.8.429-4.214.683l-1.118-2.912a.859.859,0,0,0-1.62.056l-1.111,3.608c-1.052.223-2.121.46-3.19.714l-1.77-6.026a.858.858,0,0,0-1.647,0l-2.034,6.917Zm-2.417,5.632-1.508-1a.858.858,0,0,0-.951,0l-1.5,1a.864.864,0,0,1-1.024-.056l-1.539-1.282,2.521-4.2a2.57,2.57,0,0,1,4.33-.122l2.686,3.95-1.985,1.655a.859.859,0,0,1-1.024.056Zm7.819-8.694-1.688-1.446,3.524-4.281a2.571,2.571,0,0,1,4.023.066l3.253,4.225-1.327,1.323a.858.858,0,0,1-1.118.08l-2.239-1.679a.851.851,0,0,0-1.027,0l-2.33,1.745a.847.847,0,0,1-1.07-.035Zm15.919-.93c-.062-.54-.143-1.282-1.976-1.85a.857.857,0,0,1,.509-1.637,2.7,2.7,0,0,0,4.637,0,.857.857,0,0,1,.508,1.637c-1.828.568-1.912,1.31-1.975,1.85a.857.857,0,0,1-1.7,0Zm-38.817-2.421a.86.86,0,0,0-.957-.324,1.725,1.725,0,0,1-2.08-.937,1.715,1.715,0,0,1,2.08-2.334.857.857,0,0,0,.957-.327,3.431,3.431,0,0,1,5.626,0,.854.854,0,0,0,.958.327,1.713,1.713,0,1,1,0,3.271.857.857,0,0,0-.958.324,3.427,3.427,0,0,1-5.626,0Zm14.818-1.863c-.063-.54-.146-1.282-1.976-1.85a.857.857,0,1,1,.509-1.637,2.7,2.7,0,0,0,4.636,0,.857.857,0,0,1,.506,1.637c-1.829.567-1.913,1.306-1.972,1.85a.857.857,0,0,1-1.7,0Z" transform="translate(-13830.998 -6668)"/>
</svg>
