<svg xmlns="http://www.w3.org/2000/svg" width="48" height="48" viewBox="0 0 48 48">
  <g id="huongnhin_baibien" transform="translate(0)">
    <path id="Path_619" data-name="Path 619" d="M46.124,173.9a25.27,25.27,0,0,0-14.593-.43l-6.065-14.641-2.6,1.076,5.985,14.45a25.379,25.379,0,0,0-3.813,1.884,22.644,22.644,0,0,1-11.654,3.233,22.192,22.192,0,0,1-2.313-.121L0,178.187v13.749H48V174.523Z" transform="translate(0 -143.936)"/>
    <path id="Path_620" data-name="Path 620" d="M182.04,3.14,180.739,0l-2.6,1.076,1.3,3.14a8.51,8.51,0,0,1,2.6-1.076Z" transform="translate(-161.44)"/>
    <path id="Path_621" data-name="Path 621" d="M141.511,60.367l8.8-3.647-4.867-11.75C141.11,47.675,139.451,54.084,141.511,60.367Z" transform="translate(-127.447 -40.754)"/>
    <path id="Path_622" data-name="Path 622" d="M233.4,39.406a16.074,16.074,0,0,0-6.387-6.864,10.2,10.2,0,0,0-7.286-1.239l4.867,11.75Z" transform="translate(-199.129 -28.163)"/>
    <path id="Path_623" data-name="Path 623" d="M63.168,103.963a18.942,18.942,0,0,1-.438-11.218q.125-.439.272-.86a21.244,21.244,0,0,0-3.674,4.445c-2.079,3.4-2.745,6.9-1.935,10.025Z" transform="translate(-51.709 -83.271)"/>
    <path id="Path_624" data-name="Path 624" d="M311.94,24.562l5.775-2.392c-1.634-2.78-4.584-4.789-8.457-5.721a20.91,20.91,0,0,0-4.892-.562c-.281,0-.564.007-.847.017q.4.195.8.415A18.942,18.942,0,0,1,311.94,24.562Z" transform="translate(-275.064 -14.398)"/>
  </g>
</svg>
