<svg xmlns="http://www.w3.org/2000/svg" width="48.002" height="48" viewBox="0 0 48.002 48">
  <g id="huongnhin_bien" transform="translate(-495 -569)">
    <rect id="Rectangle_273" data-name="Rectangle 273" width="48" height="48" transform="translate(495 569)" fill="none"/>
    <path id="Union_40" data-name="Union 40" d="M13871.944,6697.549a23.676,23.676,0,0,0-16.942,2.184,8.4,8.4,0,0,0-11.3,0,8.395,8.395,0,0,0-11.3,0,1.406,1.406,0,1,1,0-2.811,6.054,6.054,0,0,0,4.173-1.829,2.138,2.138,0,0,1,2.95,0,5.675,5.675,0,0,0,8.346,0,2.138,2.138,0,0,1,2.95,0,5.68,5.68,0,0,0,8.35,0,2.133,2.133,0,0,1,2.946,0,5.68,5.68,0,0,0,8.35,0,2.134,2.134,0,0,1,2.947,0,6.068,6.068,0,0,0,4.176,1.829,1.406,1.406,0,1,1,0,2.811A8.66,8.66,0,0,1,13871.944,6697.549Zm0-6.764a23.676,23.676,0,0,0-16.942,2.184,8.4,8.4,0,0,0-11.3,0,8.395,8.395,0,0,0-11.3,0,1.407,1.407,0,0,1,0-2.814,6.05,6.05,0,0,0,4.173-1.825,2.135,2.135,0,0,1,2.95,0,6.852,6.852,0,0,0,2.174,1.435,5.406,5.406,0,0,0,2,.394,5.231,5.231,0,0,0,.9-.08,10.755,10.755,0,0,1-.209-2.107,10.6,10.6,0,1,1,21,2.107,5.206,5.206,0,0,0,.9.08,5.338,5.338,0,0,0,2-.4,6.86,6.86,0,0,0,2.174-1.428,2.128,2.128,0,0,1,2.947,0,6.063,6.063,0,0,0,4.176,1.825,1.407,1.407,0,0,1,0,2.814A8.66,8.66,0,0,1,13871.944,6690.785Zm-.247-5.507a1.406,1.406,0,1,1,0-2.811h2.106a1.406,1.406,0,0,1,0,2.811Zm-35.5,0a1.406,1.406,0,0,1,0-2.811h2.107a1.406,1.406,0,0,1,0,2.811Zm29.655-8a1.405,1.405,0,0,1-.107-1.985l1.338-1.491a1.407,1.407,0,1,1,2.093,1.881l-1.337,1.487a1.408,1.408,0,0,1-1.986.108Zm-23.688-.108-1.338-1.487a1.407,1.407,0,0,1,2.094-1.881l1.338,1.487a1.407,1.407,0,0,1-2.094,1.881Zm11.432-5.657V6669.4a1.405,1.405,0,0,1,2.811,0v2.107a1.405,1.405,0,1,1-2.811,0Z" transform="translate(-13335.999 -6091.001)"/>
  </g>
</svg>
