<svg xmlns="http://www.w3.org/2000/svg" width="48" height="48" viewBox="0 0 48 48">
  <g id="huongnhin_samac" transform="translate(-0.5)">
    <g id="Group_450" data-name="Group 450" transform="translate(0.5 0.094)">
      <path id="Path_865" data-name="Path 865" d="M10.354,17.908h2.851v12.71a56.805,56.805,0,0,1,7.059,2.012V26.9h2.823a9.845,9.845,0,0,0,9.854-9.835,2.824,2.824,0,0,0-5.647,0,4.2,4.2,0,0,1-4.207,4.2H20.265V4.671a3.532,3.532,0,1,0-7.059,0v7.6H10.354a4.2,4.2,0,0,1-4.207-4.2,2.824,2.824,0,0,0-5.647,0,9.845,9.845,0,0,0,9.854,9.835Z" transform="translate(-0.5 -1)"/>
      <path id="Path_866" data-name="Path 866" d="M312.189,343.732V331h-1.412a50.643,50.643,0,0,0-19.192,3.757Z" transform="translate(-264.189 -300.002)"/>
      <path id="Path_867" data-name="Path 867" d="M24.278,338.973A52.859,52.859,0,0,0,1.912,334H.5v16.626h48v-1.1Z" transform="translate(-0.5 -302.72)"/>
    </g>
    <ellipse id="Ellipse_49" data-name="Ellipse 49" cx="5.647" cy="5.636" rx="5.647" ry="5.636" transform="translate(37.181)"/>
  </g>
</svg>
