<svg id="huongnhin_beboi" xmlns="http://www.w3.org/2000/svg" width="48" height="48" viewBox="0 0 48 48">
  <path id="Path_625" data-name="Path 625" d="M48,8V6A6,6,0,1,0,36,6v6H26V6a2,2,0,1,1,4,0V8h4V6A6,6,0,1,0,22,6V28.3a11.6,11.6,0,0,0-2.8-.3c-4.8,0-4.8,2-9.6,2S4.8,28,0,28v8c4.8,0,4.8,2,9.6,2s4.8-2,9.6-2,4.8,2,9.6,2,4.8-2,9.6-2,4.8,2,9.6,2V30c-4.2,0-4.725-1.529-8-1.913V6a2,2,0,1,1,4,0V8ZM36,16v4H26V16ZM26,29.7V24H36v4.213C33.407,28.728,32.63,30,28.8,30a11.6,11.6,0,0,1-2.8-.3Z" transform="translate(0)"/>
  <path id="Path_626" data-name="Path 626" d="M28.8,154c-4.8,0-4.8-2-9.6-2s-4.8,2-9.6,2-4.8-2-9.6-2v10H48v-8c-4.8,0-4.8-2-9.6-2s-4.8,2-9.6,2Z" transform="translate(0 -114)"/>
</svg>
