<svg xmlns="http://www.w3.org/2000/svg" width="48.002" height="47.998" viewBox="0 0 48.002 47.998">
  <path id="khongchophep_thucung" d="M13831.072,6669.99l1.989-1.989,18.377,18.4h4.967a14.622,14.622,0,0,0,8.44-8.45v-8.45H13879v2.818a5.633,5.633,0,0,1-5.625,5.632v30.422l5.625,5.632-1.989,1.993Zm36.584,44.581-.989-4.946,4.939,4.946Zm-31.031,0v-19.718a8.356,8.356,0,0,1,.094-.94,12.571,12.571,0,0,0-2.905,7.983v1.407H13831V6701.9a15.923,15.923,0,0,1,12.606-15.371l8.313,8.328h-1.232a5.637,5.637,0,0,1-5.626,5.636l-2.608,8.771a4.223,4.223,0,0,1,2.608,3.9v1.407Zm14.682-14.083a8.5,8.5,0,0,0,2.065-4.183l4.173,4.183Zm5.1-22.536v-4.225a4.222,4.222,0,0,1,4.219-4.225h1.407v8.45a2.813,2.813,0,1,1-5.626,0Z" transform="translate(-13830.999 -6668.001)"/>
</svg>
