<svg xmlns="http://www.w3.org/2000/svg" width="48" height="48" viewBox="0 0 48 48">
  <g id="yeucau_oto" transform="translate(-1251 -200)">
    <rect id="Rectangle_286" data-name="Rectangle 286" width="48" height="48" transform="translate(1251 200)" fill="none"/>
    <path id="Shape" d="M47.724,10.936a1.235,1.235,0,0,0-.952-.454H42.1c-1.153-3.041-2.655-6.02-4.362-7.144-5.905-3.885-21.569-3.885-27.475,0C8.555,4.464,7.06,7.447,5.9,10.482H1.229a1.23,1.23,0,0,0-1.2,1.479l.692,3.353a1.229,1.229,0,0,0,1.2.98H3.3a8.3,8.3,0,0,0-1.992,5.424,8.125,8.125,0,0,0,2.567,6.1c.018.016.037.027.054.043v4.691A1.845,1.845,0,0,0,5.778,34.4h4.309a1.845,1.845,0,0,0,1.844-1.844V30.666H36.069v1.885A1.845,1.845,0,0,0,37.913,34.4h4.309a1.847,1.847,0,0,0,1.844-1.844v-4.6A8.432,8.432,0,0,0,44.6,16.291H46.08a1.224,1.224,0,0,0,1.2-.981l.693-3.352A1.239,1.239,0,0,0,47.724,10.936ZM12.288,6.417c4.707-3.1,18.717-3.1,23.421,0,.914.6,2.091,3.025,3.168,5.994H9.122C10.2,9.443,11.373,7.019,12.288,6.417ZM6.774,22.179A3.627,3.627,0,1,1,10.4,25.806,3.626,3.626,0,0,1,6.774,22.179Zm30.872,3.627a3.626,3.626,0,1,1,3.627-3.627A3.627,3.627,0,0,1,37.646,25.806Z" transform="translate(1251 206.576)" fill="#092833"/>
  </g>
</svg>
